%FSLAX23Y23*%
%MOIN*%
G04 EasyPC Gerber Version 18.0.6 Build 3620 *
%ADD12R,0.07000X0.07000*%
%ADD10C,0.09268*%
%ADD13O,0.09000X0.07000*%
X0Y0D02*
D02*
D10*
X74Y81D03*
Y790D03*
X881Y81D03*
Y790D03*
D02*
D12*
X653Y401D03*
Y501D03*
X753Y401D03*
Y501D03*
X853Y401D03*
Y501D03*
D02*
D13*
X851Y199D03*
Y711D03*
X0Y0D02*
M02*
